{
    "ImageIO.framework": 1,
    "CoreLocation.framework": 2,
    "AVFoundation.framework": 1,
    "AddressBook.framework": 3,
    "AddressBookUI.framework": 1,
    "libsqlite3.tbd": 1,
    "libz.tbd": 1,
    "CoreText.framework": 1,
    "QuartzCore.framework": 1,
    "Security.framework": 1,
    "Accounts.framework": 1,
    "Social.framework": 1,
    "CoreData.framework": 1
}